tb_32bit_carry_ripple_adder.vcd
$date
	Tue Aug 03 17:27:40 2021
$end
$version
	Icarus Verilog
$end
$timescale
	1ps
$end
$scope module tb_32bit_carry_ripple_adder $end
$var wire 32 ! final_sum [31:0] $end
$var wire 1 " carry_out $end
$var reg 1 # carry_in $end
$var reg 32 $ input_a [31:0] $end
$var reg 32 % input_b [31:0] $end
$scope module uut $end
$var wire 1 & carry_in $end
$var wire 32 ' input_a [31:0] $end
$var wire 32 ( input_b [31:0] $end
$var wire 32 ) incr_sum [31:0] $end
$var wire 32 * final_sum [31:0] $end
$var wire 1 " carry_out $end
$var wire 33 + carry [32:0] $end
$scope begin genblk1[0] $end
$scope module fa_1bit_inst $end
$var wire 1 , a $end
$var wire 1 - b $end
$var wire 1 . cin $end
$var wire 1 / sum $end
$var wire 1 0 cout $end
$scope module cout_gate $end
$var wire 1 , a $end
$var wire 1 1 ab $end
$var wire 1 2 ac $end
$var wire 1 - b $end
$var wire 1 3 bc $end
$var wire 1 . c $end
$var wire 1 0 cout $end
$upscope $end
$scope module sum_gate $end
$var wire 1 , a $end
$var wire 1 - b $end
$var wire 1 . c $end
$var wire 1 / sum $end
$upscope $end
$upscope $end
$upscope $end
$scope begin genblk1[1] $end
$scope module fa_1bit_inst $end
$var wire 1 4 a $end
$var wire 1 5 b $end
$var wire 1 6 cin $end
$var wire 1 7 sum $end
$var wire 1 8 cout $end
$scope module cout_gate $end
$var wire 1 4 a $end
$var wire 1 9 ab $end
$var wire 1 : ac $end
$var wire 1 5 b $end
$var wire 1 ; bc $end
$var wire 1 6 c $end
$var wire 1 8 cout $end
$upscope $end
$scope module sum_gate $end
$var wire 1 4 a $end
$var wire 1 5 b $end
$var wire 1 6 c $end
$var wire 1 7 sum $end
$upscope $end
$upscope $end
$upscope $end
$scope begin genblk1[2] $end
$scope module fa_1bit_inst $end
$var wire 1 < a $end
$var wire 1 = b $end
$var wire 1 > cin $end
$var wire 1 ? sum $end
$var wire 1 @ cout $end
$scope module cout_gate $end
$var wire 1 < a $end
$var wire 1 A ab $end
$var wire 1 B ac $end
$var wire 1 = b $end
$var wire 1 C bc $end
$var wire 1 > c $end
$var wire 1 @ cout $end
$upscope $end
$scope module sum_gate $end
$var wire 1 < a $end
$var wire 1 = b $end
$var wire 1 > c $end
$var wire 1 ? sum $end
$upscope $end
$upscope $end
$upscope $end
$scope begin genblk1[3] $end
$scope module fa_1bit_inst $end
$var wire 1 D a $end
$var wire 1 E b $end
$var wire 1 F cin $end
$var wire 1 G sum $end
$var wire 1 H cout $end
$scope module cout_gate $end
$var wire 1 D a $end
$var wire 1 I ab $end
$var wire 1 J ac $end
$var wire 1 E b $end
$var wire 1 K bc $end
$var wire 1 F c $end
$var wire 1 H cout $end
$upscope $end
$scope module sum_gate $end
$var wire 1 D a $end
$var wire 1 E b $end
$var wire 1 F c $end
$var wire 1 G sum $end
$upscope $end
$upscope $end
$upscope $end
$scope begin genblk1[4] $end
$scope module fa_1bit_inst $end
$var wire 1 L a $end
$var wire 1 M b $end
$var wire 1 N cin $end
$var wire 1 O sum $end
$var wire 1 P cout $end
$scope module cout_gate $end
$var wire 1 L a $end
$var wire 1 Q ab $end
$var wire 1 R ac $end
$var wire 1 M b $end
$var wire 1 S bc $end
$var wire 1 N c $end
$var wire 1 P cout $end
$upscope $end
$scope module sum_gate $end
$var wire 1 L a $end
$var wire 1 M b $end
$var wire 1 N c $end
$var wire 1 O sum $end
$upscope $end
$upscope $end
$upscope $end
$scope begin genblk1[5] $end
$scope module fa_1bit_inst $end
$var wire 1 T a $end
$var wire 1 U b $end
$var wire 1 V cin $end
$var wire 1 W sum $end
$var wire 1 X cout $end
$scope module cout_gate $end
$var wire 1 T a $end
$var wire 1 Y ab $end
$var wire 1 Z ac $end
$var wire 1 U b $end
$var wire 1 [ bc $end
$var wire 1 V c $end
$var wire 1 X cout $end
$upscope $end
$scope module sum_gate $end
$var wire 1 T a $end
$var wire 1 U b $end
$var wire 1 V c $end
$var wire 1 W sum $end
$upscope $end
$upscope $end
$upscope $end
$scope begin genblk1[6] $end
$scope module fa_1bit_inst $end
$var wire 1 \ a $end
$var wire 1 ] b $end
$var wire 1 ^ cin $end
$var wire 1 _ sum $end
$var wire 1 ` cout $end
$scope module cout_gate $end
$var wire 1 \ a $end
$var wire 1 a ab $end
$var wire 1 b ac $end
$var wire 1 ] b $end
$var wire 1 c bc $end
$var wire 1 ^ c $end
$var wire 1 ` cout $end
$upscope $end
$scope module sum_gate $end
$var wire 1 \ a $end
$var wire 1 ] b $end
$var wire 1 ^ c $end
$var wire 1 _ sum $end
$upscope $end
$upscope $end
$upscope $end
$scope begin genblk1[7] $end
$scope module fa_1bit_inst $end
$var wire 1 d a $end
$var wire 1 e b $end
$var wire 1 f cin $end
$var wire 1 g sum $end
$var wire 1 h cout $end
$scope module cout_gate $end
$var wire 1 d a $end
$var wire 1 i ab $end
$var wire 1 j ac $end
$var wire 1 e b $end
$var wire 1 k bc $end
$var wire 1 f c $end
$var wire 1 h cout $end
$upscope $end
$scope module sum_gate $end
$var wire 1 d a $end
$var wire 1 e b $end
$var wire 1 f c $end
$var wire 1 g sum $end
$upscope $end
$upscope $end
$upscope $end
$scope begin genblk1[8] $end
$scope module fa_1bit_inst $end
$var wire 1 l a $end
$var wire 1 m b $end
$var wire 1 n cin $end
$var wire 1 o sum $end
$var wire 1 p cout $end
$scope module cout_gate $end
$var wire 1 l a $end
$var wire 1 q ab $end
$var wire 1 r ac $end
$var wire 1 m b $end
$var wire 1 s bc $end
$var wire 1 n c $end
$var wire 1 p cout $end
$upscope $end
$scope module sum_gate $end
$var wire 1 l a $end
$var wire 1 m b $end
$var wire 1 n c $end
$var wire 1 o sum $end
$upscope $end
$upscope $end
$upscope $end
$scope begin genblk1[9] $end
$scope module fa_1bit_inst $end
$var wire 1 t a $end
$var wire 1 u b $end
$var wire 1 v cin $end
$var wire 1 w sum $end
$var wire 1 x cout $end
$scope module cout_gate $end
$var wire 1 t a $end
$var wire 1 y ab $end
$var wire 1 z ac $end
$var wire 1 u b $end
$var wire 1 { bc $end
$var wire 1 v c $end
$var wire 1 x cout $end
$upscope $end
$scope module sum_gate $end
$var wire 1 t a $end
$var wire 1 u b $end
$var wire 1 v c $end
$var wire 1 w sum $end
$upscope $end
$upscope $end
$upscope $end
$scope begin genblk1[10] $end
$scope module fa_1bit_inst $end
$var wire 1 | a $end
$var wire 1 } b $end
$var wire 1 ~ cin $end
$var wire 1 !" sum $end
$var wire 1 "" cout $end
$scope module cout_gate $end
$var wire 1 | a $end
$var wire 1 #" ab $end
$var wire 1 $" ac $end
$var wire 1 } b $end
$var wire 1 %" bc $end
$var wire 1 ~ c $end
$var wire 1 "" cout $end
$upscope $end
$scope module sum_gate $end
$var wire 1 | a $end
$var wire 1 } b $end
$var wire 1 ~ c $end
$var wire 1 !" sum $end
$upscope $end
$upscope $end
$upscope $end
$scope begin genblk1[11] $end
$scope module fa_1bit_inst $end
$var wire 1 &" a $end
$var wire 1 '" b $end
$var wire 1 (" cin $end
$var wire 1 )" sum $end
$var wire 1 *" cout $end
$scope module cout_gate $end
$var wire 1 &" a $end
$var wire 1 +" ab $end
$var wire 1 ," ac $end
$var wire 1 '" b $end
$var wire 1 -" bc $end
$var wire 1 (" c $end
$var wire 1 *" cout $end
$upscope $end
$scope module sum_gate $end
$var wire 1 &" a $end
$var wire 1 '" b $end
$var wire 1 (" c $end
$var wire 1 )" sum $end
$upscope $end
$upscope $end
$upscope $end
$scope begin genblk1[12] $end
$scope module fa_1bit_inst $end
$var wire 1 ." a $end
$var wire 1 /" b $end
$var wire 1 0" cin $end
$var wire 1 1" sum $end
$var wire 1 2" cout $end
$scope module cout_gate $end
$var wire 1 ." a $end
$var wire 1 3" ab $end
$var wire 1 4" ac $end
$var wire 1 /" b $end
$var wire 1 5" bc $end
$var wire 1 0" c $end
$var wire 1 2" cout $end
$upscope $end
$scope module sum_gate $end
$var wire 1 ." a $end
$var wire 1 /" b $end
$var wire 1 0" c $end
$var wire 1 1" sum $end
$upscope $end
$upscope $end
$upscope $end
$scope begin genblk1[13] $end
$scope module fa_1bit_inst $end
$var wire 1 6" a $end
$var wire 1 7" b $end
$var wire 1 8" cin $end
$var wire 1 9" sum $end
$var wire 1 :" cout $end
$scope module cout_gate $end
$var wire 1 6" a $end
$var wire 1 ;" ab $end
$var wire 1 <" ac $end
$var wire 1 7" b $end
$var wire 1 =" bc $end
$var wire 1 8" c $end
$var wire 1 :" cout $end
$upscope $end
$scope module sum_gate $end
$var wire 1 6" a $end
$var wire 1 7" b $end
$var wire 1 8" c $end
$var wire 1 9" sum $end
$upscope $end
$upscope $end
$upscope $end
$scope begin genblk1[14] $end
$scope module fa_1bit_inst $end
$var wire 1 >" a $end
$var wire 1 ?" b $end
$var wire 1 @" cin $end
$var wire 1 A" sum $end
$var wire 1 B" cout $end
$scope module cout_gate $end
$var wire 1 >" a $end
$var wire 1 C" ab $end
$var wire 1 D" ac $end
$var wire 1 ?" b $end
$var wire 1 E" bc $end
$var wire 1 @" c $end
$var wire 1 B" cout $end
$upscope $end
$scope module sum_gate $end
$var wire 1 >" a $end
$var wire 1 ?" b $end
$var wire 1 @" c $end
$var wire 1 A" sum $end
$upscope $end
$upscope $end
$upscope $end
$scope begin genblk1[15] $end
$scope module fa_1bit_inst $end
$var wire 1 F" a $end
$var wire 1 G" b $end
$var wire 1 H" cin $end
$var wire 1 I" sum $end
$var wire 1 J" cout $end
$scope module cout_gate $end
$var wire 1 F" a $end
$var wire 1 K" ab $end
$var wire 1 L" ac $end
$var wire 1 G" b $end
$var wire 1 M" bc $end
$var wire 1 H" c $end
$var wire 1 J" cout $end
$upscope $end
$scope module sum_gate $end
$var wire 1 F" a $end
$var wire 1 G" b $end
$var wire 1 H" c $end
$var wire 1 I" sum $end
$upscope $end
$upscope $end
$upscope $end
$scope begin genblk1[16] $end
$scope module fa_1bit_inst $end
$var wire 1 N" a $end
$var wire 1 O" b $end
$var wire 1 P" cin $end
$var wire 1 Q" sum $end
$var wire 1 R" cout $end
$scope module cout_gate $end
$var wire 1 N" a $end
$var wire 1 S" ab $end
$var wire 1 T" ac $end
$var wire 1 O" b $end
$var wire 1 U" bc $end
$var wire 1 P" c $end
$var wire 1 R" cout $end
$upscope $end
$scope module sum_gate $end
$var wire 1 N" a $end
$var wire 1 O" b $end
$var wire 1 P" c $end
$var wire 1 Q" sum $end
$upscope $end
$upscope $end
$upscope $end
$scope begin genblk1[17] $end
$scope module fa_1bit_inst $end
$var wire 1 V" a $end
$var wire 1 W" b $end
$var wire 1 X" cin $end
$var wire 1 Y" sum $end
$var wire 1 Z" cout $end
$scope module cout_gate $end
$var wire 1 V" a $end
$var wire 1 [" ab $end
$var wire 1 \" ac $end
$var wire 1 W" b $end
$var wire 1 ]" bc $end
$var wire 1 X" c $end
$var wire 1 Z" cout $end
$upscope $end
$scope module sum_gate $end
$var wire 1 V" a $end
$var wire 1 W" b $end
$var wire 1 X" c $end
$var wire 1 Y" sum $end
$upscope $end
$upscope $end
$upscope $end
$scope begin genblk1[18] $end
$scope module fa_1bit_inst $end
$var wire 1 ^" a $end
$var wire 1 _" b $end
$var wire 1 `" cin $end
$var wire 1 a" sum $end
$var wire 1 b" cout $end
$scope module cout_gate $end
$var wire 1 ^" a $end
$var wire 1 c" ab $end
$var wire 1 d" ac $end
$var wire 1 _" b $end
$var wire 1 e" bc $end
$var wire 1 `" c $end
$var wire 1 b" cout $end
$upscope $end
$scope module sum_gate $end
$var wire 1 ^" a $end
$var wire 1 _" b $end
$var wire 1 `" c $end
$var wire 1 a" sum $end
$upscope $end
$upscope $end
$upscope $end
$scope begin genblk1[19] $end
$scope module fa_1bit_inst $end
$var wire 1 f" a $end
$var wire 1 g" b $end
$var wire 1 h" cin $end
$var wire 1 i" sum $end
$var wire 1 j" cout $end
$scope module cout_gate $end
$var wire 1 f" a $end
$var wire 1 k" ab $end
$var wire 1 l" ac $end
$var wire 1 g" b $end
$var wire 1 m" bc $end
$var wire 1 h" c $end
$var wire 1 j" cout $end
$upscope $end
$scope module sum_gate $end
$var wire 1 f" a $end
$var wire 1 g" b $end
$var wire 1 h" c $end
$var wire 1 i" sum $end
$upscope $end
$upscope $end
$upscope $end
$scope begin genblk1[20] $end
$scope module fa_1bit_inst $end
$var wire 1 n" a $end
$var wire 1 o" b $end
$var wire 1 p" cin $end
$var wire 1 q" sum $end
$var wire 1 r" cout $end
$scope module cout_gate $end
$var wire 1 n" a $end
$var wire 1 s" ab $end
$var wire 1 t" ac $end
$var wire 1 o" b $end
$var wire 1 u" bc $end
$var wire 1 p" c $end
$var wire 1 r" cout $end
$upscope $end
$scope module sum_gate $end
$var wire 1 n" a $end
$var wire 1 o" b $end
$var wire 1 p" c $end
$var wire 1 q" sum $end
$upscope $end
$upscope $end
$upscope $end
$scope begin genblk1[21] $end
$scope module fa_1bit_inst $end
$var wire 1 v" a $end
$var wire 1 w" b $end
$var wire 1 x" cin $end
$var wire 1 y" sum $end
$var wire 1 z" cout $end
$scope module cout_gate $end
$var wire 1 v" a $end
$var wire 1 {" ab $end
$var wire 1 |" ac $end
$var wire 1 w" b $end
$var wire 1 }" bc $end
$var wire 1 x" c $end
$var wire 1 z" cout $end
$upscope $end
$scope module sum_gate $end
$var wire 1 v" a $end
$var wire 1 w" b $end
$var wire 1 x" c $end
$var wire 1 y" sum $end
$upscope $end
$upscope $end
$upscope $end
$scope begin genblk1[22] $end
$scope module fa_1bit_inst $end
$var wire 1 ~" a $end
$var wire 1 !# b $end
$var wire 1 "# cin $end
$var wire 1 ## sum $end
$var wire 1 $# cout $end
$scope module cout_gate $end
$var wire 1 ~" a $end
$var wire 1 %# ab $end
$var wire 1 &# ac $end
$var wire 1 !# b $end
$var wire 1 '# bc $end
$var wire 1 "# c $end
$var wire 1 $# cout $end
$upscope $end
$scope module sum_gate $end
$var wire 1 ~" a $end
$var wire 1 !# b $end
$var wire 1 "# c $end
$var wire 1 ## sum $end
$upscope $end
$upscope $end
$upscope $end
$scope begin genblk1[23] $end
$scope module fa_1bit_inst $end
$var wire 1 (# a $end
$var wire 1 )# b $end
$var wire 1 *# cin $end
$var wire 1 +# sum $end
$var wire 1 ,# cout $end
$scope module cout_gate $end
$var wire 1 (# a $end
$var wire 1 -# ab $end
$var wire 1 .# ac $end
$var wire 1 )# b $end
$var wire 1 /# bc $end
$var wire 1 *# c $end
$var wire 1 ,# cout $end
$upscope $end
$scope module sum_gate $end
$var wire 1 (# a $end
$var wire 1 )# b $end
$var wire 1 *# c $end
$var wire 1 +# sum $end
$upscope $end
$upscope $end
$upscope $end
$scope begin genblk1[24] $end
$scope module fa_1bit_inst $end
$var wire 1 0# a $end
$var wire 1 1# b $end
$var wire 1 2# cin $end
$var wire 1 3# sum $end
$var wire 1 4# cout $end
$scope module cout_gate $end
$var wire 1 0# a $end
$var wire 1 5# ab $end
$var wire 1 6# ac $end
$var wire 1 1# b $end
$var wire 1 7# bc $end
$var wire 1 2# c $end
$var wire 1 4# cout $end
$upscope $end
$scope module sum_gate $end
$var wire 1 0# a $end
$var wire 1 1# b $end
$var wire 1 2# c $end
$var wire 1 3# sum $end
$upscope $end
$upscope $end
$upscope $end
$scope begin genblk1[25] $end
$scope module fa_1bit_inst $end
$var wire 1 8# a $end
$var wire 1 9# b $end
$var wire 1 :# cin $end
$var wire 1 ;# sum $end
$var wire 1 <# cout $end
$scope module cout_gate $end
$var wire 1 8# a $end
$var wire 1 =# ab $end
$var wire 1 ># ac $end
$var wire 1 9# b $end
$var wire 1 ?# bc $end
$var wire 1 :# c $end
$var wire 1 <# cout $end
$upscope $end
$scope module sum_gate $end
$var wire 1 8# a $end
$var wire 1 9# b $end
$var wire 1 :# c $end
$var wire 1 ;# sum $end
$upscope $end
$upscope $end
$upscope $end
$scope begin genblk1[26] $end
$scope module fa_1bit_inst $end
$var wire 1 @# a $end
$var wire 1 A# b $end
$var wire 1 B# cin $end
$var wire 1 C# sum $end
$var wire 1 D# cout $end
$scope module cout_gate $end
$var wire 1 @# a $end
$var wire 1 E# ab $end
$var wire 1 F# ac $end
$var wire 1 A# b $end
$var wire 1 G# bc $end
$var wire 1 B# c $end
$var wire 1 D# cout $end
$upscope $end
$scope module sum_gate $end
$var wire 1 @# a $end
$var wire 1 A# b $end
$var wire 1 B# c $end
$var wire 1 C# sum $end
$upscope $end
$upscope $end
$upscope $end
$scope begin genblk1[27] $end
$scope module fa_1bit_inst $end
$var wire 1 H# a $end
$var wire 1 I# b $end
$var wire 1 J# cin $end
$var wire 1 K# sum $end
$var wire 1 L# cout $end
$scope module cout_gate $end
$var wire 1 H# a $end
$var wire 1 M# ab $end
$var wire 1 N# ac $end
$var wire 1 I# b $end
$var wire 1 O# bc $end
$var wire 1 J# c $end
$var wire 1 L# cout $end
$upscope $end
$scope module sum_gate $end
$var wire 1 H# a $end
$var wire 1 I# b $end
$var wire 1 J# c $end
$var wire 1 K# sum $end
$upscope $end
$upscope $end
$upscope $end
$scope begin genblk1[28] $end
$scope module fa_1bit_inst $end
$var wire 1 P# a $end
$var wire 1 Q# b $end
$var wire 1 R# cin $end
$var wire 1 S# sum $end
$var wire 1 T# cout $end
$scope module cout_gate $end
$var wire 1 P# a $end
$var wire 1 U# ab $end
$var wire 1 V# ac $end
$var wire 1 Q# b $end
$var wire 1 W# bc $end
$var wire 1 R# c $end
$var wire 1 T# cout $end
$upscope $end
$scope module sum_gate $end
$var wire 1 P# a $end
$var wire 1 Q# b $end
$var wire 1 R# c $end
$var wire 1 S# sum $end
$upscope $end
$upscope $end
$upscope $end
$scope begin genblk1[29] $end
$scope module fa_1bit_inst $end
$var wire 1 X# a $end
$var wire 1 Y# b $end
$var wire 1 Z# cin $end
$var wire 1 [# sum $end
$var wire 1 \# cout $end
$scope module cout_gate $end
$var wire 1 X# a $end
$var wire 1 ]# ab $end
$var wire 1 ^# ac $end
$var wire 1 Y# b $end
$var wire 1 _# bc $end
$var wire 1 Z# c $end
$var wire 1 \# cout $end
$upscope $end
$scope module sum_gate $end
$var wire 1 X# a $end
$var wire 1 Y# b $end
$var wire 1 Z# c $end
$var wire 1 [# sum $end
$upscope $end
$upscope $end
$upscope $end
$scope begin genblk1[30] $end
$scope module fa_1bit_inst $end
$var wire 1 `# a $end
$var wire 1 a# b $end
$var wire 1 b# cin $end
$var wire 1 c# sum $end
$var wire 1 d# cout $end
$scope module cout_gate $end
$var wire 1 `# a $end
$var wire 1 e# ab $end
$var wire 1 f# ac $end
$var wire 1 a# b $end
$var wire 1 g# bc $end
$var wire 1 b# c $end
$var wire 1 d# cout $end
$upscope $end
$scope module sum_gate $end
$var wire 1 `# a $end
$var wire 1 a# b $end
$var wire 1 b# c $end
$var wire 1 c# sum $end
$upscope $end
$upscope $end
$upscope $end
$scope begin genblk1[31] $end
$scope module fa_1bit_inst $end
$var wire 1 h# a $end
$var wire 1 i# b $end
$var wire 1 j# cin $end
$var wire 1 k# sum $end
$var wire 1 l# cout $end
$scope module cout_gate $end
$var wire 1 h# a $end
$var wire 1 m# ab $end
$var wire 1 n# ac $end
$var wire 1 i# b $end
$var wire 1 o# bc $end
$var wire 1 j# c $end
$var wire 1 l# cout $end
$upscope $end
$scope module sum_gate $end
$var wire 1 h# a $end
$var wire 1 i# b $end
$var wire 1 j# c $end
$var wire 1 k# sum $end
$upscope $end
$upscope $end
$upscope $end
$upscope $end
$upscope $end
$enddefinitions $end
#0
$dumpvars
0o#
0n#
0m#
0l#
0k#
0j#
0i#
0h#
0g#
0f#
0e#
0d#
0c#
0b#
0a#
0`#
0_#
0^#
0]#
0\#
0[#
0Z#
0Y#
0X#
0W#
0V#
0U#
0T#
0S#
0R#
0Q#
0P#
0O#
0N#
0M#
0L#
0K#
0J#
0I#
0H#
0G#
0F#
0E#
0D#
0C#
0B#
0A#
0@#
0?#
0>#
0=#
0<#
0;#
0:#
09#
08#
07#
06#
05#
04#
03#
02#
01#
00#
0/#
0.#
0-#
0,#
0+#
0*#
0)#
0(#
0'#
0&#
0%#
0$#
0##
0"#
0!#
0~"
0}"
0|"
0{"
0z"
0y"
0x"
0w"
0v"
0u"
0t"
0s"
0r"
0q"
0p"
0o"
0n"
0m"
0l"
0k"
0j"
0i"
0h"
0g"
0f"
0e"
0d"
0c"
0b"
0a"
0`"
0_"
0^"
0]"
0\"
0["
0Z"
0Y"
0X"
0W"
0V"
0U"
0T"
0S"
0R"
0Q"
0P"
0O"
0N"
0M"
0L"
0K"
0J"
0I"
0H"
0G"
0F"
0E"
0D"
0C"
0B"
0A"
0@"
0?"
0>"
0="
0<"
0;"
0:"
09"
08"
07"
06"
05"
04"
03"
02"
01"
00"
0/"
0."
0-"
0,"
0+"
0*"
0)"
0("
0'"
0&"
0%"
0$"
0#"
0""
0!"
0~
0}
0|
0{
0z
0y
0x
0w
0v
0u
0t
0s
0r
0q
0p
0o
0n
0m
0l
0k
0j
0i
0h
0g
0f
0e
0d
0c
0b
0a
0`
0_
0^
0]
0\
0[
0Z
0Y
0X
0W
0V
0U
0T
0S
0R
0Q
0P
0O
0N
0M
0L
0K
0J
0I
0H
0G
0F
0E
0D
0C
0B
0A
0@
0?
0>
0=
0<
0;
0:
09
08
07
06
05
04
03
02
01
00
0/
0.
0-
0,
b0 +
b0 *
b0 )
b0 (
b0 '
0&
b0 %
b0 $
0#
0"
b0 !
$end
#1000
b10010000101010011010100100100 !
b10010000101010011010100100100 *
1?
1W
1o
1!"
11"
19"
1Q"
1a"
1q"
1;#
b10010000101010011010100100100 )
1S#
1<
1T
1l
1|
1."
16"
1N"
1^"
1n"
18#
1P#
b10010000101010011010100100100 $
b10010000101010011010100100100 '
#2000
1Y"
1X"
1R"
15"
14"
1U"
0Q"
10"
1P"
1*"
1J"
17
1%"
1$"
1-"
1L"
13#
16
1~
1("
18"
1H"
12#
1"
10
1x
1""
12"
1B"
1,#
b1000101000011100011010010001010 !
b1000101000011100011010010001010 *
b100000001000000111011110000000010 +
1l#
0?
1G
0W
0o
19"
0I"
0q"
0;#
1C#
0S#
11
1g
1y
1#"
1!"
0)"
13"
11"
1C"
1i"
1-#
b1000101000011100011010010001010 )
1c#
1m#
1,
0<
1D
0T
0l
1t
06"
1>"
1F"
0N"
0n"
1(#
08#
1@#
0P#
1h#
1-
1e
1u
1}
1'"
1/"
1?"
1O"
1g"
1)#
1a#
1i#
b10000100100001001101011000001001 $
b10000100100001001101011000001001 '
b11000000100010010101111010000001 %
b11000000100010010101111010000001 (
#3000
0Y"
0X"
0R"
1?
0U"
1Q"
1;#
1>
0P"
1:#
18
0J"
b100000011000000001011110000000110 +
14#
b1110010011110011011010011100100 !
b1110010011110011011010011100100 *
1:
07
0G
1W
1_
0L"
1I"
0a"
1q"
1y"
1##
16#
03#
0C#
1S#
b1110010011110011011010011100100 )
1[#
14
0D
1T
1\
0F"
0^"
1n"
1v"
1~"
10#
0@#
1P#
1X#
b10110001111100000101011001100011 $
b10110001111100000101011001100011 '
#4000
1m"
1l"
1/#
1.#
1+#
1h"
1*#
1b"
1$#
1d"
1&#
0##
1`"
1"#
1Z"
1z"
0?
1!"
1U"
1T"
1\"
1u"
1t"
0;#
1K
1J
1G
1O
1{
0-"
1E"
1}"
0y"
1G#
1F#
1C#
1K#
0>
1~
1H"
1P"
1X"
1p"
0:#
1F
1N
1v
0("
1@"
1x"
1B#
1J#
0"
08
1x
1B"
1J"
1R"
1j"
04#
1@
1H
1p
0""
1:"
1r"
b1001101100110010001010010011010 !
b1001101100110010001010010011010 *
1<#
1D#
b1101111111111111011000011010 +
0l#
0:
17
0B
0W
0_
0y
0w
0$"
1+"
0,"
0)"
0C"
0A"
1L"
0I"
1S"
1Q"
0Y"
0a"
1k"
1i"
06#
13#
0>#
0S#
0[#
1A
0C
1I
1q
0#"
0%"
1="
09"
1s"
b1001101100110010001010010011010 )
1q"
1=#
0?#
1E#
0m#
04
1<
1D
0T
0\
1d
1l
0t
0|
1&"
0>"
1F"
1N"
1V"
1^"
1f"
0v"
00#
18#
1@#
0P#
0X#
1`#
0h#
1=
1E
0e
1m
0}
17"
1o"
1w"
19#
1A#
0a#
0i#
b1000110110111111001100110001101 $
b1000110110111111001100110001101 '
b110101110010111101100001101 %
b110101110010111101100001101 (
#5000
0`"
0Z"
0\"
1Y"
0X"
0R"
0U"
0/#
0.#
0+#
0P"
0*#
0J"
0$#
0L"
1I"
0&#
1##
0H"
0"#
0B"
0z"
0E"
1A"
0}"
1y"
0@"
0x"
0:"
0r"
0="
19"
0u"
0~
08"
0p"
0x
02"
0j"
0{
1w
0-"
05"
0m"
0v
0("
00"
0h"
0p
0""
0*"
b1101000000000000000000011010 +
0b"
b10111001011110111111111101110010 !
b10111001011110111111111101110010 *
0I
0J
0G
1W
1_
0g
0q
1o
0$"
1!"
0+"
1)"
03"
04"
11"
0S"
0T"
1Q"
0d"
0a"
0k"
0l"
1i"
0s"
0t"
1q"
0E#
0F#
0C#
1S#
1[#
0c#
b10111001011110111111111101110010 )
1k#
0D
1T
1\
0d
0l
1|
0&"
0."
0N"
0^"
0f"
0n"
0@#
1P#
1X#
0`#
1h#
b10110010110000101000010001100101 $
b10110010110000101000010001100101 '
#6000
1U"
1T"
1.#
1P"
1*#
1h"
1J"
1$#
1b"
1L"
0I"
1]"
1\"
1}"
1|"
1&#
0##
0?
1e"
1;#
1~
1H"
1X"
1x"
1"#
06
0>
0F
0N
0V
1`"
12#
1:#
0B#
0J#
0R#
1x
1B"
1R"
1r"
1z"
00
08
0@
0H
0P
1Z"
1,#
14#
0<#
0D#
b11111011111000010000000000 +
0L#
b10001010001010110011010100010011 !
b10001010001010110011010100010011 *
0W
0_
1y
0w
1!"
1C"
0A"
1S"
1Q"
1s"
0q"
1{"
1y"
0S#
0[#
01
1/
0;
17
0A
0K
0G
0S
1O
0)"
1["
1Y"
0a"
1i"
0-#
0+#
17#
03#
0=#
0G#
0C#
0O#
b10001010001010110011010100010011 )
1K#
0<
0T
0\
1l
1t
0|
16"
1>"
1N"
1n"
1v"
08#
0P#
0X#
0h#
0-
15
0=
0E
1M
0m
0'"
07"
1W"
1_"
0g"
0)#
11#
09#
0A#
1I#
1i#
b111100111110001100000001 $
b111100111110001100000001 '
b10001001001101110101001000010010 %
b10001001001101110101001000010010 (
#7000
1S#
08"
1R#
02"
1L#
05"
11"
1O#
0K#
00"
1J#
0*"
1D#
0,"
1F#
0~
0("
1B#
0x
0""
b11111111011111000000000000000 +
1<#
b10010000000011110001111100011111 !
b10010000000011110001111100011111 *
1?
1G
0y
1w
0$"
1!"
1)"
09"
1c"
1d"
1a"
0{"
0|"
0y"
1>#
0;#
b10010000000011110001111100011111 )
0C#
1<
1D
0t
1|
1&"
06"
1^"
0v"
18#
1@#
b110110101111100110100001101 $
b110110101111100110100001101 '
#8000
0>#
0:#
04#
07#
13#
1S
1R
1g
1c#
02#
1N
1f
0"#
1b#
0,#
1H
1`
0z"
1\#
1[
1Z
1W
1q"
0.#
1+#
1J
0G
1c
0}"
1y"
1_#
1V
1p"
0*#
1F
1^
1v
0x"
1Z#
1P
1j"
0$#
1@
1X
1p
0r"
b1111100000111111000001011111000 +
1T#
b1011001101100011011111010110011 !
b1011001101100011011111010110011 *
1Q
1O
0["
0\"
0Y"
1l"
0i"
0&#
0##
1M#
1N#
1K#
1V#
1A
0?
1Y
0_
1q
0o
1w
19"
1K"
1M"
1I"
0c"
0e"
0a"
0s"
1=#
0?#
0;#
1U#
1W#
0[#
b1011001101100011011111010110011 )
0k#
1L
1T
0V"
1f"
0n"
0~"
1H#
1P#
1=
1U
1]
1m
0u
17"
1G"
0_"
0o"
19#
1Q#
1Y#
0i#
b11110100011011100110100111101 $
b11110100011011100110100111101 '
b111011001000111111000101110110 %
b111011001000111111000101110110 (
#9000
0?#
0>#
0;#
0:#
04#
07#
13#
02#
0,#
0.#
1+#
0*#
0$#
1E"
1D"
1A"
0&#
1("
1@"
0"#
1""
1:"
0z"
1s
1r
1o
1$"
0!"
1="
09"
0}"
1y"
1k#
1n
1~
18"
0p"
0x"
1j#
1h
1x
12"
0j"
0r"
b11111100000011111110111111111000 +
1d#
b10110001111110000100100101100011 !
b10110001111110000100100101100011 *
0Q
0R
0O
1a
1b
1_
1j
0g
1z
0w
1)"
13"
01"
0K"
0L"
0I"
0S"
0T"
0Q"
0l"
1i"
0t"
1q"
1##
0M#
0N#
0K#
1]#
1^#
1[#
1f#
b10110001111110000100100101100011 )
0c#
0L
1\
1d
1t
0&"
1."
0F"
0N"
0f"
1n"
1~"
0H#
1X#
1`#
b1110110110101000101011111101101 $
b1110110110101000101011111101101 '
