tb_full_adder_sum.vcd
$date
	Tue Aug 03 17:19:22 2021
$end
$version
	Icarus Verilog
$end
$timescale
	1ps
$end
$scope module tb_full_adder_sum $end
$var wire 1 ! sum $end
$var reg 1 " a $end
$var reg 1 # b $end
$var reg 1 $ c $end
$scope module uut $end
$var wire 1 " a $end
$var wire 1 # b $end
$var wire 1 $ c $end
$var wire 1 ! sum $end
$upscope $end
$upscope $end
$enddefinitions $end
#0
$dumpvars
0$
0#
0"
0!
$end
#1000
1!
1$
#2000
0$
1#
#3000
0!
1$
#4000
1!
0$
0#
1"
#5000
0!
1$
#6000
0$
1#
#7000
1!
1$
#8000
0!
0$
0#
0"
#9000
1!
1$
#10000
0$
1#
#11000
0!
1$
#12000
1!
0$
0#
1"
#13000
0!
1$
#14000
0$
1#
#15000
1!
1$
#16000
0!
0$
0#
0"
#17000
1!
1$
#18000
0$
1#
#19000
0!
1$
#20000
1!
0$
0#
1"
#21000
0!
1$
#22000
0$
1#
#23000
1!
1$
#24000
0!
0$
0#
0"
#25000
1!
1$
#26000
0$
1#
#27000
0!
1$
#28000
1!
0$
0#
1"
#29000
0!
1$
#30000
0$
1#
